<?xml version="1.0" standalone="no"?>
<!DOCTYPE svg PUBLIC "-//W3C//DTD SVG 1.1//EN" "http://www.w3.org/Graphics/SVG/1.1/DTD/svg11.dtd" >
<svg xmlns="http://www.w3.org/2000/svg">
<metadata>
<json>
{
	"fontFamily": "icomoon",
	"majorVersion": 1,
	"minorVersion": 0,
	"copyright": "Graphic Fusion Design",
	"designerURL": "http://graphicfusiondesign.com",
	"version": "Version 1.0",
	"fontId": "icomoon",
	"psName": "icomoon",
	"subFamily": "Regular",
	"fullName": "icomoon",
	"description": "Font generated by IcoMoon."
}
</json>
</metadata>
<defs>
<font id="icomoon" horiz-adv-x="512">
<font-face units-per-em="512" ascent="480" descent="-32" />
<missing-glyph horiz-adv-x="512" />
<glyph unicode="&#x20;" d="" horiz-adv-x="256" />
<glyph unicode="&#xe600;" d="M192 160l64 32 224 224-32 32-224-224-32-64zM144.65 46.451c-15.816 33.364-32.833 50.381-66.198 66.197l49.548 136.396 64 38.956 192 192h-96l-192-192-96-320 320 96 192 192v96l-192-192-38.956-64z" />
<glyph unicode="&#xe601;" d="M256 480c-141.385 0-256-114.615-256-256s114.615-256 256-256 256 114.615 256 256-114.615 256-256 256zM256 32c-106.039 0-192 85.961-192 192s85.961 192 192 192c106.039 0 192-85.961 192-192s-85.961-192-192-192z" />
<glyph unicode="&#xe602;" d="M152 176c0-57.438 46.562-104 104-104s104 46.562 104 104-46.562 104-104 104-104-46.562-104-104zM480 352h-112c-8 32-16 64-48 64h-128c-32 0-40-32-48-64h-112c-17.6 0-32-14.4-32-32v-288c0-17.6 14.4-32 32-32h448c17.6 0 32 14.4 32 32v288c0 17.6-14.4 32-32 32zM256 34c-78.425 0-142 63.574-142 142s63.575 142 142 142c78.426 0 142-63.575 142-142s-63.573-142-142-142zM480 256h-64v32h64v-32z" />
<glyph unicode="&#xe603;" d="M0 320h512l-32-320h-448l-32 320zM464 384l16-32h-448l32 64h176l16-32h208z" />
<glyph unicode="&#xe604;" d="M416 0l96 256h-416l-96-256zM64 288l-64-288v416h144l64-64h208v-64z" />
<glyph unicode="&#xe605;" d="M463.906 480h-144.281c-26.453 0-63.398-15.303-82.102-34.007l-223.495-223.495c-18.704-18.704-18.704-49.312 0-68.016l172.455-172.453c18.704-18.705 49.311-18.705 68.015 0l223.495 223.494c18.704 18.705 34.007 55.651 34.007 82.102v144.281c0 26.452-21.643 48.094-48.094 48.094zM400 320c-26.51 0-48 21.49-48 48s21.49 48 48 48 48-21.49 48-48-21.49-48-48-48z" />
<glyph unicode="&#xe606;" d="M488.791 382.769c-16.992 4.854-34.705-4.985-39.56-21.978l-2.511-8.791h-298.471l-4.496 35.969c-2.002 16.014-15.615 28.031-31.753 28.031h-80c-17.673 0-32-14.327-32-32s14.327-32 32-32h51.751l28.496-227.969c2.002-16.013 15.615-28.031 31.753-28.031h272c14.287 0 26.844 9.472 30.769 23.209l64 224c4.855 16.993-4.985 34.705-21.978 39.56zM256 224v32h63.998v-32h-63.998zM319.998 192v-32h-63.998v32h63.998zM256 288v32h63.998v-32h-63.998zM152.249 320h71.751v-32h-67.751l-4 32zM160.249 256h63.751v-32h-59.751l-4 32zM168.249 192h55.751v-32h-51.751l-4 32zM391.862 160h-39.864v32h49.007l-9.143-32zM410.148 224h-58.15v32h67.293l-9.143-32zM428.434 288h-76.436v32h85.579l-9.143-32zM128 16c0 26.51 21.49 48 48 48s48-21.49 48-48c0-26.51-21.49-48-48-48s-48 21.49-48 48zM320 16c0 26.51 21.49 48 48 48s48-21.49 48-48c0-26.51-21.49-48-48-48s-48 21.49-48 48z" />
<glyph unicode="&#xe607;" d="M240 448c-132.548 0-240-107.452-240-240s107.452-240 240-240c132.549 0 240 107.451 240 240s-107.451 240-240 240zM240 16c-106.039 0-192 85.961-192 192s85.961 192 192 192c106.039 0 192-85.961 192-192s-85.961-192-192-192zM256 224v64h64v32h-64v32h-32v-32h-64v-128h64v-64h-64v-32h64v-32h32v32h64.001l-0.001 128h-64zM224 224h-32v64h32v-64zM288.001 128h-32.001v64h32.001v-64z" />
<glyph unicode="&#xe608;" d="M464 416h-416c-26.4 0-48-21.6-48-48v-288c0-26.4 21.6-48 48-48h416c26.4 0 48 21.6 48 48v288c0 26.4-21.6 48-48 48zM48 384h416c8.673 0 16-7.327 16-16v-48h-448v48c0 8.673 7.327 16 16 16zM464 64h-416c-8.673 0-16 7.327-16 16v144h448v-144c0-8.673-7.327-16-16-16zM64 160h32v-64h-32zM128 160h32v-64h-32zM192 160h32v-64h-32z" />
<glyph unicode="&#xe609;" d="M256 480c-141.385 0-256-114.615-256-256s114.615-256 256-256 256 114.615 256 256-114.615 256-256 256zM160 224c0 53.020 42.98 96 96 96s96-42.98 96-96-42.98-96-96-96-96 42.98-96 96zM462.99 138.262v0l-88.71 36.745c6.259 15.092 9.72 31.638 9.72 48.993s-3.461 33.901-9.72 48.993l88.71 36.745c10.954-26.411 17.010-55.365 17.010-85.738s-6.057-59.327-17.010-85.738v0zM341.739 430.99v0 0l-36.745-88.71c-15.092 6.259-31.638 9.72-48.994 9.72s-33.901-3.461-48.993-9.72l-36.745 88.711c26.411 10.952 55.366 17.009 85.738 17.009s59.327-6.057 85.739-17.010zM49.010 309.738l88.711-36.745c-6.259-15.092-9.721-31.638-9.721-48.993s3.461-33.901 9.72-48.993l-88.71-36.745c-10.953 26.411-17.010 55.365-17.010 85.738s6.057 59.327 17.010 85.738zM170.262 17.010l36.745 88.71c15.092-6.259 31.638-9.72 48.993-9.72s33.901 3.461 48.993 9.72l36.745-88.71c-26.411-10.952-55.365-17.010-85.738-17.010s-59.327 6.057-85.738 17.010z" />
<glyph unicode="&#xe60a;" d="M352 160c-32-32-32-64-64-64s-64 32-96 64-64 64-64 96 32 32 64 64-64 128-96 128-96-96-96-96c0-64 65.75-193.75 128-256s192-128 256-128c0 0 96 64 96 96s-96 128-128 96z" />
<glyph unicode="&#xe60b;" d="M449.18 448h-385.18v-64h-46.82c-8.8 0-17.18-6.264-17.18-15.064v-32c0-8.8 8.38-16.936 17.18-16.936h46.82v-32h-46.82c-8.8 0-17.18-6.264-17.18-15.064v-32c0-8.8 8.38-16.936 17.18-16.936h46.82v-32h-46.82c-8.8 0-17.18-6.264-17.18-15.064v-32c0-8.799 8.38-16.936 17.18-16.936h46.82v-32h-46.82c-8.8 0-17.18-6.264-17.18-15.064v-32c0-8.8 8.38-16.936 17.18-16.936h46.82v-64h385.18c17.674 0 30.82 15.263 30.82 32.936v416c0 17.673-13.146 31.064-30.82 31.064zM160 0h-64v32h17.18c8.8 0 14.82 8.136 14.82 16.936v32c0 8.801-6.021 15.064-14.82 15.064h-17.18v32h17.18c8.8 0 14.82 8.136 14.82 16.936v32c0 8.801-6.021 15.064-14.82 15.064h-17.18v32h17.18c8.8 0 14.82 8.136 14.82 16.936v32c0 8.801-6.021 15.064-14.82 15.064h-17.18v32h17.18c8.8 0 14.82 8.136 14.82 16.936v32c0 8.801-6.020 15.064-14.82 15.064h-17.18v32h64v-416z" />
<glyph unicode="&#xe60c;" d="M464 416h-416c-26.4 0-48-21.6-48-48v-320c0-26.4 21.6-48 48-48h416c26.4 0 48 21.6 48 48v320c0 26.4-21.6 48-48 48zM199.37 204.814l-135.37-105.446v250.821l135.37-145.375zM88.19 352h335.62l-167.81-126-167.81 126zM204.644 199.151l51.356-55.151 51.355 55.151 105.277-135.151h-313.264l105.276 135.151zM312.63 204.814l135.37 145.375v-250.821l-135.37 105.446z" />
<glyph unicode="&#xe60d;" d="M256 373.76c-167.962 0-256-123.725-256-143.36s88.038-143.36 256-143.36 256 123.725 256 143.36-88.038 143.36-256 143.36zM256 120.115c-62.822 0-113.767 49.382-113.767 110.285s50.944 110.285 113.767 110.285c62.848 0 113.792-49.382 113.792-110.285s-50.944-110.285-113.792-110.285zM256 230.4c-10.393 11.417 16.998 55.117 0 55.117-31.411 0-56.883-24.679-56.883-55.117s25.472-55.143 56.883-55.143c31.437 0 56.909 24.704 56.909 55.143 0 13.977-48.026-9.728-56.909 0z" />
<glyph unicode="&#xe60e;" d="M102.4 51.2c0-28.262 22.938-51.2 51.2-51.2 28.288 0 51.2 22.938 51.2 51.2s-22.912 51.2-51.2 51.2c-28.263 0-51.2-22.938-51.2-51.2zM358.4 51.2c0-28.262 22.938-51.2 51.2-51.2 28.288 0 51.2 22.938 51.2 51.2s-22.912 51.2-51.2 51.2c-28.262 0-51.2-22.938-51.2-51.2zM193.203 172.237l283.366 80.947c5.401 1.561 9.831 7.424 9.831 13.056v140.8h-360.96v43.52c0 5.632-4.582 10.24-10.24 10.24h-79.36c-5.632 0-10.24-4.608-10.24-10.24v-40.96h49.741l50.381-231.859 4.864-24.141v-38.4c0-5.632 4.608-10.24 10.214-10.24h335.386c5.606 0 10.214 4.608 10.214 10.24v38.4h-287.949c-29.415 0-30.029 11.52-5.248 18.637z" />
<glyph unicode="&#xe60f;" d="M256 480c-88.366 0-160-71.634-160-160 0-160 160-352 160-352s160 192 160 352c0 88.366-71.635 160-160 160zM256 224c-53.020 0-96 42.98-96 96s42.98 96 96 96 96-42.98 96-96-42.98-96-96-96z" />
<glyph unicode="&#xe610;" d="M256 480c-141.385 0-256-114.615-256-256s114.615-256 256-256 256 114.615 256 256-114.615 256-256 256zM256 16c-114.875 0-208 93.125-208 208s93.125 208 208 208 208-93.125 208-208-93.125-208-208-208zM304 272l-144 80h-32v-32l80-144 144-80h32v32l-80 144zM256 192c-17.673 0-32 14.327-32 32s14.327 32 32 32c17.673 0 32-14.327 32-32s-14.327-32-32-32z" />
<glyph unicode="&#xe611;" d="M256 435.149l-133.12-124.928h84.48v-131.072h97.28v131.072h84.505l-133.145 124.928zM495.104 139.673l-81.51 54.835h-50.253l87.040-66.765h-90.752c-2.611 0-4.941-1.331-6.144-3.405l-20.889-57.216h-153.19l-20.915 57.216c-1.152 2.074-3.533 3.405-6.144 3.405h-90.727l87.066 66.765h-50.279l-81.485-54.835c-12.134-7.245-19.379-23.962-16.128-37.094l14.361-78.695c3.251-13.159 17.69-23.936 32.026-23.936h417.613c14.387 0 28.8 10.777 32.051 23.936l14.361 78.695c3.302 13.159-3.968 29.849-16.103 37.094z" />
<glyph unicode="&#xe612;" d="M495.104 139.673l-81.51 54.835h-50.253l87.040-66.765h-90.752c-2.611 0-4.941-1.331-6.144-3.405l-20.889-57.216h-153.19l-20.915 57.216c-1.152 2.074-3.533 3.405-6.144 3.405h-90.727l87.066 66.765h-50.279l-81.485-54.835c-12.134-7.245-19.379-23.962-16.128-37.094l14.361-78.695c3.251-13.159 17.69-23.936 32.026-23.936h417.613c14.387 0 28.8 10.777 32.051 23.936l14.361 78.695c3.302 13.159-3.968 29.849-16.103 37.094zM389.146 304.077h-84.505v131.072h-97.28v-131.072h-84.48l133.12-124.928 133.146 124.928z" />
<glyph unicode="&#xe613;" d="M0 384l160 64v-384l-160-64zM352 384v-384l-160 53.333v384zM512 448v-384l-128-51.2v384z" />
<glyph unicode="&#xe614;" d="M256 476.16c-135.731 0-245.76-110.029-245.76-245.76s110.029-245.76 245.76-245.76 245.76 110.029 245.76 245.76-110.003 245.76-245.76 245.76zM190.336 178.662c-28.032 0-50.739 23.142-50.739 51.738s22.707 51.738 50.739 51.738c28.032 0 50.765-23.143 50.765-51.738-0.025-28.595-22.733-51.738-50.765-51.738zM321.639 178.662c-28.058 0-50.765 23.142-50.765 51.738s22.707 51.738 50.765 51.738c28.007 0 50.739-23.143 50.739-51.738 0.026-28.595-22.733-51.738-50.739-51.738z" />
<glyph unicode="&#xe615;" d="M256 476.16c-135.731 0-245.76-110.029-245.76-245.76s110.029-245.76 245.76-245.76 245.76 110.029 245.76 245.76-110.029 245.76-245.76 245.76zM368.64 277.735c-13.005-74.675-85.709-137.882-107.546-152.32-21.863-14.413-41.805 5.811-49.049 21.069-8.269 17.433-33.101 111.975-39.603 119.783-6.502 7.859-25.984-7.808-25.984-7.808l-9.447 12.647c0 0 39.603 48.179 69.734 54.169 31.949 6.4 31.898-49.945 39.578-81.254 7.45-30.285 12.442-47.591 18.918-47.591 6.502 0 18.918 16.87 32.512 42.752 13.619 25.933-0.563 48.794-27.187 32.537 10.599 64.998 111.104 80.666 98.074 6.016z" />
<glyph unicode="&#xe616;" d="M256 476.16c-135.731 0-245.76-110.029-245.76-245.76s110.029-245.76 245.76-245.76 245.76 110.029 245.76 245.76-110.029 245.76-245.76 245.76zM355.942 274.816c0.103-2.074 0.154-4.173 0.154-6.272 0-63.949-48.691-137.702-137.728-137.702-27.315 0-52.787 7.987-74.189 21.76 3.789-0.461 7.655-0.666 11.546-0.666 22.681 0 43.546 7.731 60.135 20.736-21.171 0.384-39.066 14.387-45.235 33.587 2.944-0.563 5.99-0.87 9.088-0.87 4.429 0 8.704 0.589 12.749 1.69-22.119 4.454-38.835 24.013-38.835 47.463 0 0.205 0 0.41 0.025 0.589 6.528-3.609 14.003-5.786 21.913-6.042-12.953 8.678-21.504 23.475-21.504 40.294 0 8.883 2.381 17.203 6.554 24.345 23.859-29.312 59.546-48.589 99.763-50.585-0.819 3.533-1.255 7.219-1.255 11.034 0 26.727 21.683 48.41 48.409 48.41 13.926 0 26.496-5.863 35.328-15.283 11.034 2.15 21.401 6.169 30.745 11.725-3.635-11.29-11.289-20.787-21.299-26.778 9.805 1.178 19.123 3.763 27.801 7.629-6.477-9.702-14.72-18.227-24.166-25.063z" />
<glyph unicode="&#xe617;" d="M256 476.16c-135.731 0-245.76-110.029-245.76-245.76s110.029-245.76 245.76-245.76 245.76 110.029 245.76 245.76-110.029 245.76-245.76 245.76zM314.189 306.329h-36.941c-4.352 0-9.216-5.76-9.216-13.415v-26.675h46.183v-38.042h-46.183v-114.202h-43.623v114.202h-39.526v38.016h39.526v22.375c0 32.103 22.272 58.189 52.839 58.189h36.941v-40.448z" />
<glyph unicode="&#xe618;" d="M232.883 299.904c-6.169 21.76-16.154 28.185-31.693 28.185-1.664 0-3.353-0.231-4.966-0.666-6.758-1.92-12.083-7.552-15.053-15.872-3.047-8.448-3.251-17.28-0.589-27.315 4.71-17.92 17.459-30.95 30.336-30.95 1.664 0 3.353 0.231 4.966 0.666 14.003 3.968 22.81 25.421 16.999 45.952zM256 476.16c-135.731 0-245.76-110.029-245.76-245.76s110.029-245.76 245.76-245.76c135.757 0 245.76 110.029 245.76 245.76s-110.003 245.76-245.76 245.76zM241.843 124.877c-15.463-7.501-32.077-8.294-38.502-8.294-1.229 0-1.92 0.026-2.023 0.026 0 0-0.487 0-1.255 0-10.035 0-59.981 2.304-59.981 47.795 0 44.697 54.375 48.179 71.040 48.179h0.461c-9.6 12.851-7.603 25.805-7.603 25.805-0.845-0.051-2.099-0.102-3.609-0.102-6.298 0-18.406 0.999-28.8 7.731-12.723 8.167-19.174 22.118-19.174 41.446 0 54.553 59.546 56.755 60.16 56.781h59.469v-1.306c0-6.656-11.93-7.936-20.096-9.063-2.765-0.384-8.294-0.947-9.881-1.741 15.078-8.038 17.511-20.711 17.511-39.552 0-21.427-8.397-32.768-17.305-40.755-5.504-4.915-9.856-8.832-9.856-14.003 0-5.069 5.939-10.291 12.851-16.359 11.289-9.933 26.777-23.526 26.777-46.361 0-23.603-10.163-40.499-30.183-50.227zM371.891 230.631h-38.81v-38.81h-24.576v38.81h-38.81v24.576h38.81v38.784h24.576v-38.809h38.81v-24.55zM210.509 200.934c-1.331 0-2.662-0.051-3.994-0.154-11.367-0.819-21.863-5.094-29.465-12.007-7.526-6.81-11.341-15.385-10.803-24.089 1.126-18.176 20.685-28.851 44.391-27.136 23.373 1.69 38.938 15.13 37.786 33.331-1.101 17.127-15.975 30.055-37.913 30.055z" />
<glyph unicode="&#xe619;" d="M256 476.16c-135.731 0-245.76-110.029-245.76-245.76s110.029-245.76 245.76-245.76 245.76 110.029 245.76 245.76-110.029 245.76-245.76 245.76zM272.793 172.135c-15.744 1.229-22.349 9.037-34.688 16.538-6.81-35.635-15.078-69.786-39.68-87.603-7.577 53.837 11.161 94.259 19.84 137.165-14.822 24.934 1.792 75.162 33.049 62.797 38.477-15.232-33.331-92.775 14.873-102.477 50.329-10.112 70.861 87.322 39.654 118.989-45.082 45.747-131.226 1.049-120.627-64.461 2.585-16.025 19.097-20.864 6.605-42.983-28.851 6.4-37.478 29.159-36.352 59.495 1.792 49.689 44.621 84.454 87.577 89.293 54.349 6.067 105.344-19.942 112.409-71.066 7.911-57.728-24.55-120.192-82.663-115.687z" />
<glyph unicode="&#xe61a;" d="M256 476.16c-135.731 0-245.76-110.029-245.76-245.76s110.029-245.76 245.76-245.76c135.731 0 245.735 110.029 245.735 245.76s-109.978 245.76-245.735 245.76zM321.945 124.365c-10.061-4.787-19.149-8.141-27.238-10.087-8.141-1.92-16.998-2.893-26.445-2.893-10.752 0-20.25 1.382-28.518 4.122-8.243 2.739-15.309 6.681-21.145 11.75s-9.881 10.496-12.135 16.231-3.379 14.029-3.379 24.909v83.482h-25.984v33.664c9.216 3.046 17.152 7.399 23.731 13.082 6.579 5.657 11.879 12.467 15.846 20.429 3.994 7.936 6.758 18.073 8.243 30.336h33.433v-60.186h55.782v-37.35h-55.783v-61.031c0-13.798 0.717-22.656 2.176-26.573s4.122-7.040 8.038-9.37c5.223-3.149 11.187-4.762 17.869-4.762 11.904 0 23.757 3.917 35.507 11.776v-37.529z" />
<glyph unicode="&#xe61b;" d="M256 476.16c-135.731 0-245.76-110.029-245.76-245.76s110.029-245.76 245.76-245.76 245.76 110.029 245.76 245.76-110.029 245.76-245.76 245.76zM195.84 128.537h-49.767v160.128h49.767v-160.128zM170.649 308.327c-15.719 0-25.881 11.161-25.881 24.909 0 14.080 10.47 24.883 26.522 24.883s25.881-10.803 26.189-24.883c0.025-13.773-10.137-24.909-26.829-24.909zM377.575 128.537h-49.741v88.755c0 20.634-7.219 34.688-25.216 34.688-13.747 0-21.913-9.498-25.549-18.662-1.305-3.251-1.639-7.859-1.639-12.416v-92.339h-49.792v109.056c0 19.968-0.64 36.685-1.305 51.072h43.213l2.304-22.246h0.973c6.553 10.471 22.605 25.856 49.459 25.856 32.743 0 57.293-21.913 57.293-69.069v-94.695z" />
<glyph unicode="&#xe61c;" d="M512 64v384h-512v-384h224v-32h-96v-32h256v32h-96v32h224zM64 384h384v-256h-384v256z" />
<glyph unicode="&#xe61d;" d="M416 448h-320l-96-96v-336c0-8.837 7.163-16 16-16h480c8.836 0 16 7.163 16 16v336l-96 96zM256 64l-160 128h96v96h128v-96h96l-160-128zM77.255 384l32 32h293.489l32-32h-357.489z" />
<glyph unicode="&#xe61e;" d="M416 448h-320l-96-96v-336c0-8.837 7.163-16 16-16h480c8.836 0 16 7.163 16 16v336l-96 96zM320 160v-96h-128v96h-96l160 128 160-128h-96zM77.255 384l32 32h293.488l32-32h-357.488z" />
<glyph unicode="&#xe61f;" d="M256 192l128 128h-96v128h-64v-128h-96zM372.363 244.364l-35.87-35.871 130.040-48.493-210.533-78.509-210.533 78.509 130.040 48.493-35.871 35.871-139.636-52.364v-128l256-96 256 96v128z" />
<glyph unicode="&#xe620;" d="M224 192h64v128h96l-128 128-128-128h96zM320 264v-49.356l146.533-54.644-210.533-78.509-210.533 78.509 146.533 54.644v49.356l-192-72v-128l256-96 256 96v128z" />
<glyph unicode="&#xe621;" d="M448 480h-448v-512h512v448l-64 64zM256 416h64v-128h-64v128zM448 32h-384v384h32v-160h288v160h37.489l26.511-26.509v-357.491z" />
<glyph unicode="&#xe622;" d="M256 448c141.385 0 256-93.125 256-208s-114.615-208-256-208c-13.578 0-26.905 0.867-39.912 2.522-54.989-54.989-120.625-64.85-184.088-66.298v13.458c34.268 16.789 64 47.37 64 82.318 0 4.877-0.379 9.665-1.082 14.348-57.898 38.132-94.918 96.377-94.918 161.652 0 114.875 114.615 208 256 208z" />
<glyph unicode="&#xe623;" d="M544 29.417c0-22.75 13.014-42.454 32-52.092v-7.969c-5.313-0.727-10.736-1.112-16.25-1.112-34.004 0-64.674 14.264-86.361 37.132-13.111-3.491-27.001-5.376-41.389-5.376-79.529 0-144 57.308-144 128s64.471 128 144 128c79.529 0 144-57.308 144-128 0-27.674-9.882-53.296-26.678-74.233-3.412-7.412-5.322-15.656-5.322-24.35zM256 480c139.229 0 252.496-90.307 255.918-202.76-24.591 10.96-51.793 16.76-79.918 16.76-47.78 0-92.908-16.723-127.069-47.089-35.423-31.486-54.931-73.717-54.931-118.911 0-22.336 4.772-43.944 13.868-63.894-2.614-0.063-5.234-0.106-7.868-0.106-13.578 0-26.905 0.867-39.912 2.522-54.989-54.989-120.625-64.85-184.088-66.298v13.458c34.268 16.789 64 47.37 64 82.318 0 4.877-0.379 9.665-1.082 14.348-57.898 38.132-94.918 96.377-94.918 161.652 0 114.875 114.615 208 256 208z" horiz-adv-x="576" />
<glyph unicode="&#xe624;" d="M96 224c0 6.090 0.352 12.098 1.015 18.011l-92.49 30.052c-2.958-15.57-4.525-31.632-4.525-48.063 0-73.615 31.083-139.961 80.827-186.662l57.142 78.648c-26.062 28.463-41.969 66.379-41.969 108.014zM416 224c0-41.634-15.906-79.551-41.969-108.014l57.142-78.648c49.744 46.701 80.827 113.047 80.827 186.662 0 16.431-1.566 32.493-4.524 48.063l-92.49-30.052c0.662-5.914 1.014-11.921 1.014-18.011zM288 380.796c45.967-9.331 84.772-38.371 107.225-77.913l92.489 30.051c-36.598 77.71-111.12 134.030-199.714 145.078v-97.216zM116.775 302.884c22.453 39.542 61.258 68.582 107.225 77.913v97.215c-88.594-11.048-163.115-67.368-199.713-145.077l92.488-30.051zM322.278 78.336c-20.195-9.204-42.636-14.336-66.278-14.336s-46.083 5.132-66.277 14.335l-57.146-78.655c36.603-20.183 78.668-31.68 123.423-31.68s86.82 11.497 123.424 31.68l-57.146 78.656z" />
<glyph unicode="&#xe625;" d="M496.131 44.302l-121.276 103.147c-12.537 11.283-25.945 16.463-36.776 15.963 28.628 33.534 45.921 77.039 45.921 124.588 0 106.039-85.961 192-192 192s-192-85.961-192-192c0-106.039 85.961-192 192-192 47.549 0 91.054 17.293 124.588 45.922-0.5-10.831 4.68-24.239 15.963-36.776l103.147-121.276c17.661-19.623 46.511-21.277 64.11-3.678s15.946 46.449-3.677 64.11zM192 160c-70.692 0-128 57.308-128 128s57.308 128 128 128 128-57.308 128-128-57.307-128-128-128zM224 384h-64v-64h-64v-64h64v-64h64v64h64v64h-64z" />
<glyph unicode="&#xe626;" d="M496.131 44.302l-121.276 103.147c-12.537 11.283-25.945 16.463-36.776 15.963 28.628 33.534 45.921 77.039 45.921 124.588 0 106.039-85.961 192-192 192s-192-85.961-192-192c0-106.039 85.961-192 192-192 47.549 0 91.054 17.293 124.588 45.922-0.5-10.831 4.68-24.239 15.963-36.776l103.147-121.276c17.661-19.623 46.511-21.277 64.11-3.678s15.946 46.449-3.677 64.11zM192 160c-70.692 0-128 57.308-128 128s57.308 128 128 128 128-57.308 128-128-57.307-128-128-128zM96 320h192v-64h-192z" />
<glyph unicode="&#xe627;" d="M416 256h-32v96c0 70.692-57.308 128-128 128s-128-57.308-128-128v-96h-32c-17.6 0-32-14.4-32-32v-224c0-17.6 14.4-32 32-32h320c17.6 0 32 14.4 32 32v224c0 17.6-14.4 32-32 32zM256 64c-17.673 0-32 14.327-32 32s14.327 32 32 32 32-14.327 32-32-14.327-32-32-32zM320 256h-128v96c0 35.29 28.71 64 64 64s64-28.71 64-64v-96z" />
<glyph unicode="&#xe628;" d="M384 448h-64c-52.935 0-96-43.065-96-96v-96h-200c-13.2 0-24-10.8-24-24v-240c0-13.2 10.8-24 24-24h272c13.2 0 24 10.8 24 24v240c0 13.2-10.8 24-24 24h-8v96c0 17.645 14.355 32 32 32h64c17.645 0 32-14.355 32-32v-96h64v96c0 52.935-43.065 96-96 96zM192 32h-64l13.92 69.6c-8.404 5.766-13.92 15.437-13.92 26.4 0 17.673 14.327 32 32 32s32-14.327 32-32c0-10.963-5.516-20.634-13.92-26.4l13.92-69.6z" />
<glyph unicode="&#xe629;" d="M501.467 71.062l-230.276 197.38c10.724 20.149 16.809 43.141 16.809 67.558 0 79.529-64.471 144-144 144-14.547 0-28.586-2.166-41.823-6.177l83.195-83.195c12.445-12.445 12.445-32.81 0-45.255l-50.745-50.745c-12.445-12.445-32.81-12.445-45.255 0l-83.195 83.195c-4.011-13.237-6.177-27.276-6.177-41.823 0-79.529 64.471-144 144-144 24.417 0 47.409 6.085 67.558 16.81l197.38-230.276c11.454-13.362 31.008-14.113 43.452-1.669l50.746 50.746c12.444 12.444 11.693 31.997-1.669 43.451z" />
<glyph unicode="&#xe62a;" d="M466.895 174.875c-26.863 46.527-10.708 106.152 36.076 133.244l-50.313 87.146c-14.375-8.427-31.088-13.259-48.923-13.259-53.768 0-97.354 43.873-97.354 97.995h-100.629c0.133-16.705-4.037-33.641-12.979-49.126-26.862-46.528-86.578-62.351-133.431-35.379l-50.312-87.146c14.485-8.236 27.025-20.294 35.943-35.739 26.819-46.454 10.756-105.96-35.854-133.112l50.313-87.146c14.325 8.348 30.958 13.127 48.7 13.127 53.598 0 97.072-43.596 97.35-97.479h100.627c-0.043 16.537 4.136 33.285 12.983 48.609 26.818 46.453 86.388 62.297 133.207 35.506l50.313 87.145c-14.39 8.233-26.846 20.249-35.717 35.614zM256 120.334c-57.254 0-103.668 46.412-103.668 103.667 0 57.254 46.413 103.667 103.668 103.667s103.666-46.413 103.666-103.667c-0.001-57.255-46.412-103.667-103.666-103.667z" />
<glyph unicode="&#xe62b;" d="M358.774 480c-84.382-139.493-151.15-70.891-248.795-171.215-86.168-88.533-56.291-195.153 16.262-231.872 71.615 36.594 144.884 118.411 199.225 236.862 0 0 48.833-149.572-100.745-293.687 72.634-85.074 195.914-25.886 230.363 109.459 37.449 147.137-60.194 296.948-96.31 350.453zM48.506-3.121c0.058-1.453 1.711-28.879 37.683-28.879 26.172 0 158.916 72.339 227.133 260.102-103.219-182.607-253.060-227.919-264.816-231.223z" />
<glyph unicode="&#xe62c;" d="M352 448l-160-160h-96l-96-128c0 0 101.708 28.326 161.033 15.042l-161.033-207.042 210.951 164.072c29.419-67.327-18.951-164.072-18.951-164.072l128 96v96l160 160 32 160-160-32z" />
<glyph unicode="&#xe62d;" d="M256 480c-141.385 0-256-114.615-256-256s114.615-256 256-256 256 114.615 256 256-114.615 256-256 256zM256 32c-106.039 0-192 85.961-192 192s85.961 192 192 192c106.039 0 192-85.961 192-192s-85.961-192-192-192zM224 352c0 17.673 14.327 32 32 32s32-14.327 32-32c0-17.673-14.327-32-32-32s-32 14.327-32 32zM320 320c0 17.673 14.327 32 32 32s32-14.327 32-32c0-17.673-14.327-32-32-32s-32 14.327-32 32zM128 320c0 17.673 14.327 32 32 32s32-14.327 32-32c0-17.673-14.327-32-32-32s-32 14.327-32 32zM224 128v-32h64v32l-32 160z" />
<glyph unicode="&#xe62e;" d="M160.504-32c-34.123 71.004-15.951 111.689 10.275 150.022 28.72 41.978 36.122 83.533 36.122 83.533s22.577-29.35 13.546-75.254c39.886 44.4 47.412 115.14 41.391 142.232 90.157-63.006 128.688-199.428 76.761-300.533 276.186 156.266 68.699 390.086 32.577 416.425 12.041-26.338 14.324-70.925-10-92.563-41.176 156.138-142.986 188.138-142.986 188.138 12.041-80.522-43.648-168.572-97.348-234.365-1.887 32.108-3.891 54.264-20.775 84.99-3.79-58.328-48.366-105.874-60.437-164.314-16.351-79.143 12.248-137.090 120.874-198.311z" />
<glyph unicode="&#xe62f;" d="M480 480l-224-64-224 64c0 0-2.25-25.849 0-64l224-70.045 224 70.045c2.249 38.151 0 64 0 64zM36.095 382.447c11.993-125.348 56.745-336.117 219.905-414.447 163.16 78.33 207.912 289.099 219.905 414.447l-219.905-82.679-219.905 82.679z" />
<glyph unicode="&#xe630;" d="M512 151.229c0 41.045-28.339 75.45-66.498 84.74-1.621 64.35-54.229 116.031-118.931 116.031-37.896 0-71.633-17.747-93.427-45.366-12.221 15.799-31.345 25.98-52.854 25.98-36.905 0-66.821-29.937-66.821-66.861 0-3.218 0.24-6.38 0.682-9.477-5.611 1.012-11.383 1.569-17.285 1.569-53.499 0.001-96.866-43.393-96.866-96.921 0-53.531 43.367-96.924 96.865-96.924l328.131 0.006c48.069 0.092 87.004 39.106 87.004 87.223z" />
<glyph unicode="&#xe631;" d="M445.502 299.97c-1.621 64.349-54.229 116.030-118.931 116.030-37.896 0-71.633-17.747-93.427-45.366-12.221 15.799-31.345 25.98-52.854 25.98-36.905 0-66.821-29.937-66.821-66.861 0-3.218 0.24-6.38 0.682-9.477-5.611 1.012-11.383 1.569-17.285 1.569-53.499 0.001-96.866-43.393-96.866-96.921 0-53.531 43.367-96.924 96.865-96.924h49.88l109.255-109.255 109.255 109.255 59.741 0.006c48.069 0.092 87.004 39.106 87.004 87.223 0 41.045-28.339 75.45-66.498 84.741zM256 64l-96 96h64v96h64v-96h64l-96-96z" />
<glyph unicode="&#xe632;" d="M446.134 286.755c1.222 5.555 1.866 11.324 1.866 17.245 0 44.183-35.817 80-80 80-7.111 0-14.007-0.934-20.566-2.676-12.399 38.676-48.645 66.676-91.434 66.676-43.674 0-80.527-29.168-92.163-69.085-11.371 3.311-23.396 5.085-35.837 5.085-70.692 0-128-57.308-128-128 0-70.694 57.308-128 128-128h64v-96h128v96h112c44.183 0 80 35.816 80 80 0 39.36-28.427 72.081-65.866 78.755zM288 160v-96h-64v96h-80l112 112 112-112h-80z" />
<glyph unicode="&#xe633;" d="M437.020 405.019c48.351-48.352 74.98-112.64 74.98-181.020s-26.629-132.667-74.98-181.019c-48.353-48.351-112.64-74.98-181.020-74.98s-132.667 26.629-181.020 74.98c-48.351 48.352-74.98 112.639-74.98 181.019s26.627 132.668 74.98 181.020c48.353 48.352 112.64 74.981 181.020 74.981s132.667-26.629 181.020-74.981zM414.392 65.607c31.529 31.53 52.493 70.804 61.136 113.531-6.737-9.918-13.181-13.597-17.172 8.603-4.11 36.195-37.354 13.074-58.258 25.93-22.002-14.829-71.453 28.831-63.049-20.412 12.967-22.211 70.004 29.725 41.574-17.271-18.137-32.808-66.321-105.466-60.053-143.129 0.791-54.872-56.067-11.442-75.657 6.76-13.178 36.46-4.491 100.187-38.949 118.043-37.401 1.624-69.502 5.023-83.997 46.835-8.723 29.914 9.282 74.447 41.339 81.322 46.925 29.483 63.687-34.527 107.695-35.717 13.664 14.297 50.908 18.843 53.996 34.875-28.875 5.095 36.634 24.279-2.764 35.191-21.735-2.556-35.739-22.537-24.184-39.479-42.119-9.821-43.468 60.952-83.955 38.629-1.029-35.295-66.111-11.443-22.518-4.286 14.978 6.544-24.43 25.508-3.14 22.062 10.458 0.568 45.666 12.906 36.138 21.201 19.605 12.17 36.080-29.145 55.269 0.941 13.854 23.133-5.81 27.404-23.175 15.678-9.79 10.962 17.285 34.638 41.166 44.869 7.959 3.41 15.561 5.268 21.373 4.742 12.029-13.896 34.275-16.303 35.439 1.671-29.791 14.267-62.638 21.804-96.646 21.804-48.811 0-95.235-15.512-133.654-44.195 10.325-4.73 16.186-10.619 6.239-18.148-7.728-23.027-39.085-53.938-66.612-49.562-14.293-24.648-23.706-51.803-27.73-80.264 23.056-7.628 28.372-22.725 23.418-27.775-11.748-10.244-18.968-24.765-22.688-40.661 7.505-45.918 29.086-88.238 62.635-121.788 42.308-42.307 98.559-65.607 158.392-65.607s116.084 23.3 158.392 65.607z" />
<glyph unicode="&#xe634;" d="M416 393.847c38.233 0 72.546 20.811 96 36.553v-297.845c-23.454-15.743-57.767-36.555-96-36.555s-72.546 11.335-96 27.078c-23.454 15.74-57.767 27.075-96 27.075s-72.545-19.458-96-35.198v297.845c23.455 15.742 57.767 35.2 96 35.2s72.546-11.334 96-27.076c23.454-15.742 57.767-27.077 96-27.077zM64 480c17.673 0 32-14.327 32-32v-480h-64v480c0 17.673 14.327 32 32 32z" />
<glyph unicode="&#xe635;" d="M348.916 316.476l-32.476 32.461-162.405-162.371c-26.907-26.896-26.907-70.524 0-97.422 26.902-26.896 70.53-26.896 97.437 0l194.886 194.854c44.857 44.831 44.857 117.531 0 162.363-44.833 44.852-117.556 44.852-162.391 0l-204.615-204.589c-0.145-0.152-0.306-0.288-0.438-0.423-62.551-62.548-62.551-163.928 0-226.453 62.527-62.528 163.934-62.528 226.494 0 0.137 0.137 0.258 0.284 0.41 0.438l0.016-0.017 139.666 139.646-32.493 32.46-139.665-139.631c-0.148-0.134-0.282-0.285-0.423-0.422-44.537-44.529-116.99-44.529-161.538 0-44.531 44.521-44.531 116.961 0 161.489 0.152 0.152 0.302 0.291 0.444 0.423l-0.023 0.030 204.64 204.583c26.856 26.869 70.572 26.869 97.443 0 26.856-26.867 26.856-70.574 0-97.42l-194.886-194.85c-8.968-8.961-23.527-8.961-32.486 0-8.947 8.943-8.947 23.516 0 32.46l162.403 162.391z" />
<glyph unicode="&#xe636;" d="M256 384c-111.659 0-208.441-65.021-256-160 47.559-94.979 144.341-160 256-160 111.657 0 208.439 65.021 256 160-47.558 94.979-144.343 160-256 160zM382.225 299.148c30.081-19.187 55.571-44.887 74.717-75.148-19.146-30.261-44.637-55.961-74.718-75.149-37.797-24.108-81.445-36.851-126.224-36.851-44.78 0-88.428 12.743-126.225 36.852-30.080 19.186-55.57 44.886-74.717 75.148 19.146 30.262 44.637 55.962 74.717 75.148 1.959 1.25 3.938 2.461 5.929 3.65-4.979-13.664-7.704-28.411-7.704-43.798 0-70.692 57.308-128 128-128s128 57.308 128 128c0 15.387-2.725 30.134-7.704 43.799 1.99-1.189 3.969-2.401 5.929-3.651zM256 275c0-26.51-21.49-48-48-48s-48 21.49-48 48 21.49 48 48 48 48-21.49 48-48z" />
<glyph unicode="&#xe637;" d="M419.661 331.792c38.822-27.515 70.685-64.546 92.339-107.792-47.561-94.979-144.343-160-256-160-31.283 0-61.396 5.106-89.589 14.542l38.978 38.978c16.529-3.65 33.486-5.52 50.611-5.52 44.779 0 88.427 12.743 126.223 36.852 30.081 19.188 55.572 44.888 74.718 75.149-18.526 29.283-43.007 54.275-71.825 73.247l34.545 34.544zM256 131c-11.362 0-22.376 1.488-32.864 4.267l156.593 156.592c2.781-10.486 4.271-21.497 4.271-32.859 0-70.692-57.308-128-128-128zM480 480h-26.869l-109.806-109.806c-27.538 8.962-56.877 13.806-87.325 13.806-111.659 0-208.441-65.021-256-160 21.329-42.596 52.564-79.154 90.597-106.534l-90.597-90.597v-26.869h26.869l453.131 453.131v26.869zM208 323c24.022 0 43.923-17.647 47.446-40.685l-54.762-54.762c-23.037 3.524-40.684 23.425-40.684 47.447 0 26.51 21.49 48 48 48zM55.058 224c19.146 30.262 44.637 55.962 74.717 75.148 1.959 1.25 3.938 2.461 5.929 3.65-4.979-13.664-7.704-28.411-7.704-43.798 0-29.262 9.825-56.224 26.349-77.781l-29.275-29.275c-28.036 18.821-51.877 43.386-70.016 72.056z" />
<glyph unicode="&#xe638;" d="M512 281.475l-176.89 25.704-79.11 160.291-79.108-160.291-176.892-25.704 128-124.769-30.216-176.176 158.216 83.179 158.216-83.179-30.217 176.176 128.001 124.769zM256 103.251l-111.731-58.74 21.338 124.415-90.393 88.111 124.92 18.152 55.866 113.198 55.868-113.198 124.918-18.152-90.394-88.111 21.339-124.415-111.731 58.74z" />
<glyph unicode="&#xe639;" d="M512 281.475l-176.89 25.704-79.11 160.291-79.108-160.291-176.892-25.704 128-124.769-30.216-176.176 158.216 83.179 158.216-83.179-30.217 176.176 128.001 124.769zM256 103.251l-0.471-0.248 0.471 285.384 55.868-113.198 124.918-18.152-90.394-88.111 21.339-124.415-111.731 58.74z" />
<glyph unicode="&#xe63a;" d="M512 281.475l-176.89 25.704-79.11 160.291-79.108-160.291-176.892-25.704 128-124.769-30.216-176.176 158.216 83.179 158.216-83.179-30.217 176.176 128.001 124.769z" />
<glyph unicode="&#xe63b;" d="M512 300.922c0-43.181-18.609-82.015-48.245-108.922h0.245l-160-160c-16-16-32-32-48-32s-32 16-48 32l-159.755 160c-29.636 26.907-48.245 65.741-48.245 108.922 0 81.229 65.849 147.078 147.078 147.078 43.181 0 82.015-18.609 108.922-48.245 26.907 29.636 65.741 48.245 108.922 48.245 81.228 0 147.078-65.849 147.078-147.078z" />
<glyph unicode="&#xe63c;" d="M256 400.638l-172.417-368.638h344.834l-172.417 368.638zM256 480v0c11.035 0 22.070-7.441 30.442-22.324l218.536-435.556c16.745-29.766 2.5-54.12-31.651-54.12h-434.654c-34.152 0-48.395 24.354-31.652 54.12l218.537 435.556c8.372 14.883 19.407 22.324 30.442 22.324zM224 96c0 17.673 14.327 32 32 32s32-14.327 32-32c0-17.673-14.327-32-32-32s-32 14.327-32 32zM256 288c17.673 0 32-14.327 32-32l-10-96h-44l-10 96c0 17.673 14.327 32 32 32z" />
<glyph unicode="&#xe63d;" d="M256 432c-55.559 0-107.792-21.636-147.078-60.922s-60.922-91.519-60.922-147.078c0-55.559 21.636-107.792 60.922-147.078s91.519-60.922 147.078-60.922c55.559 0 107.792 21.636 147.078 60.922s60.922 91.519 60.922 147.078c0 55.559-21.636 107.792-60.922 147.078s-91.519 60.922-147.078 60.922zM256 480v0c141.385 0 256-114.615 256-256s-114.615-256-256-256c-141.385 0-256 114.615-256 256s114.615 256 256 256zM224 128h64v-64h-64zM224 384h64v-192h-64z" />
<glyph unicode="&#xe63e;" d="M224 128h64v-64h-64zM352 352c17.673 0 32-14.327 32-32v-96l-96-64h-64v32l96 64v32h-160v64h192zM256 432c-55.559 0-107.792-21.636-147.078-60.922s-60.922-91.519-60.922-147.078c0-55.559 21.636-107.792 60.922-147.078s91.519-60.922 147.078-60.922c55.559 0 107.792 21.636 147.078 60.922s60.922 91.519 60.922 147.078c0 55.559-21.636 107.792-60.922 147.078s-91.519 60.922-147.078 60.922zM256 480v0c141.385 0 256-114.615 256-256s-114.615-256-256-256c-141.385 0-256 114.615-256 256s114.615 256 256 256z" />
<glyph unicode="&#xe63f;" d="M256 480c-141.385 0-256-114.615-256-256s114.615-256 256-256 256 114.615 256 256-114.615 256-256 256zM256 16c-114.875 0-208 93.125-208 208s93.125 208 208 208 208-93.125 208-208-93.125-208-208-208zM224 352h64v-64h-64zM320 96h-128v32h32v96h-32v32h96v-128h32z" />
<glyph unicode="&#xe640;" d="M507.331 68.67c-0.002 0.002-0.004 0.004-0.006 0.005l-155.322 155.325 155.322 155.325c0.002 0.002 0.004 0.003 0.006 0.005 1.672 1.673 2.881 3.627 3.656 5.708 2.123 5.688 0.912 12.341-3.662 16.915l-73.373 73.373c-4.574 4.573-11.225 5.783-16.914 3.66-2.080-0.775-4.035-1.984-5.709-3.655 0-0.002-0.002-0.003-0.004-0.005l-155.324-155.326-155.324 155.325c-0.002 0.002-0.003 0.003-0.005 0.005-1.673 1.671-3.627 2.88-5.707 3.655-5.69 2.124-12.341 0.913-16.915-3.66l-73.374-73.374c-4.574-4.574-5.784-11.226-3.661-16.914 0.776-2.080 1.985-4.036 3.656-5.708 0.002-0.001 0.003-0.003 0.005-0.005l155.325-155.324-155.325-155.326c-0.001-0.002-0.003-0.003-0.004-0.005-1.671-1.673-2.88-3.627-3.657-5.707-2.124-5.688-0.913-12.341 3.661-16.915l73.374-73.373c4.575-4.574 11.226-5.784 16.915-3.661 2.080 0.776 4.035 1.985 5.708 3.656 0.001 0.002 0.003 0.003 0.005 0.005l155.324 155.325 155.324-155.325c0.002-0.001 0.004-0.003 0.006-0.004 1.674-1.672 3.627-2.881 5.707-3.657 5.689-2.123 12.342-0.913 16.914 3.661l73.373 73.374c4.574 4.574 5.785 11.227 3.662 16.915-0.776 2.080-1.985 4.034-3.657 5.707z" />
<glyph unicode="&#xe641;" d="M432 416l-240-240-112 112-80-80 192-192 320 320z" />
<glyph unicode="&#xe642;" d="M198.717 21.152l-198.934 195.8 98.689 97.135 100.245-98.666 214.81 211.426 98.689-97.135-313.499-308.56zM53.956 216.952l144.762-142.481 259.328 255.241-44.518 43.816-214.81-211.426-100.245 98.667-44.517-43.817z" />
<glyph unicode="&#xe643;" d="M0 272v-96c0-8.836 7.164-16 16-16h480c8.836 0 16 7.164 16 16v96c0 8.836-7.164 16-16 16h-480c-8.836 0-16-7.164-16-16z" />
<glyph unicode="&#xe644;" d="M496 288h-176v176c0 8.836-7.164 16-16 16h-96c-8.836 0-16-7.164-16-16v-176h-176c-8.836 0-16-7.164-16-16v-96c0-8.836 7.164-16 16-16h176v-176c0-8.836 7.164-16 16-16h96c8.836 0 16 7.164 16 16v176h176c8.836 0 16 7.164 16 16v96c0 8.836-7.164 16-16 16z" />
<glyph unicode="&#xe645;" d="M192 224h-160v64h160v64l96-96-96-96zM512 480v-416l-192-96v96h-192v128h32v-96h160v288l128 64h-288v-128h-32v160z" />
<glyph unicode="&#xe646;" d="M256 480c-141.385 0-256-114.615-256-256s114.615-256 256-256 256 114.615 256 256-114.615 256-256 256zM256 16c-114.875 0-208 93.125-208 208s93.125 208 208 208 208-93.125 208-208-93.125-208-208-208zM192 336l192-112-192-112z" />
<glyph unicode="&#xe647;" d="M256 480c-141.385 0-256-114.615-256-256s114.615-256 256-256 256 114.615 256 256-114.615 256-256 256zM256 16c-114.875 0-208 93.125-208 208s93.125 208 208 208 208-93.125 208-208-93.125-208-208-208zM160 320h64v-192h-64zM288 320h64v-192h-64z" />
<glyph unicode="&#xe648;" d="M256 480c-141.385 0-256-114.615-256-256s114.615-256 256-256 256 114.615 256 256-114.615 256-256 256zM256 16c-114.875 0-208 93.125-208 208s93.125 208 208 208 208-93.125 208-208-93.125-208-208-208zM160 320h192v-192h-192z" />
<glyph unicode="&#xe649;" d="M256-32c141.385 0 256 114.615 256 256s-114.615 256-256 256-256-114.615-256-256 114.615-256 256-256zM256 432c114.875 0 208-93.125 208-208s-93.125-208-208-208-208 93.125-208 208 93.125 208 208 208zM352 144l-112 80 112 80zM224 144l-112 80 112 80z" />
<glyph unicode="&#xe64a;" d="M256 480c-141.385 0-256-114.615-256-256s114.615-256 256-256 256 114.615 256 256-114.615 256-256 256zM256 16c-114.875 0-208 93.125-208 208s93.125 208 208 208 208-93.125 208-208-93.125-208-208-208zM160 304l112-80-112-80zM288 304l112-80-112-80z" />
<glyph unicode="&#xe64b;" d="M96 416l320-192-320-192z" />
<glyph unicode="&#xe64c;" d="M256.001 480l-256.001-256h160v-255.999l192-0.001v256h160z" />
<glyph unicode="&#xe64d;" d="M512 224l-256 256v-160h-255.999l-0.001-192h256v-160z" />
<glyph unicode="&#xe64e;" d="M256-32l256 256h-160v255.999l-192 0.001v-256h-160z" />
<glyph unicode="&#xe64f;" d="M0 224l256-256v160h255.999l0.001 192h-256v160z" />
<glyph unicode="&#xe650;" d="M438.627 278.627l-160 160c-12.496 12.497-32.757 12.497-45.254 0l-160-160c-12.497-12.497-12.497-32.758 0-45.255 12.497-12.498 32.758-12.498 45.255 0l105.372 105.373v-306.745c0-17.673 14.327-32 32-32s32 14.327 32 32v306.745l105.373-105.373c6.248-6.248 14.438-9.372 22.627-9.372s16.379 3.124 22.627 9.373c12.497 12.497 12.497 32.757 0 45.254z" />
<glyph unicode="&#xe651;" d="M310.627 41.373l160 160c12.497 12.496 12.497 32.758 0 45.255l-160 160c-12.497 12.496-32.758 12.496-45.255 0-12.497-12.497-12.497-32.758 0-45.255l105.373-105.373h-306.745c-17.673 0-32-14.327-32-32s14.327-32 32-32h306.745l-105.373-105.373c-6.248-6.248-9.372-14.438-9.372-22.627s3.124-16.379 9.372-22.627c12.497-12.497 32.758-12.497 45.255 0z" />
<glyph unicode="&#xe652;" d="M73.373 169.373l160-160c12.496-12.497 32.758-12.497 45.255 0l160 160c12.496 12.497 12.496 32.758 0 45.255-12.497 12.497-32.758 12.497-45.255 0l-105.373-105.373v306.745c0 17.673-14.327 32-32 32s-32-14.327-32-32v-306.745l-105.373 105.373c-6.248 6.248-14.438 9.372-22.627 9.372s-16.379-3.124-22.627-9.372c-12.497-12.497-12.497-32.758 0-45.255z" />
<glyph unicode="&#xe653;" d="M201.373 406.627l-160-160c-12.497-12.496-12.497-32.758 0-45.254l160-160c12.497-12.496 32.758-12.496 45.255 0s12.498 32.758 0 45.254l-105.374 105.373h306.746c17.673 0 32 14.326 32 32s-14.327 32-32 32h-306.746l105.373 105.373c6.248 6.248 9.373 14.438 9.373 22.627s-3.124 16.379-9.372 22.627c-12.498 12.497-32.758 12.497-45.255 0z" />
<glyph unicode="&#xe654;" d="M512 224c0-141.385-114.615-256-256-256s-256 114.615-256 256 114.615 256 256 256 256-114.615 256-256zM48 224c0-114.875 93.125-208 208-208s208 93.125 208 208-93.125 208-208 208-208-93.125-208-208zM278.627 374.628l128-128.001c12.497-12.496 12.497-32.757 0-45.254s-32.758-12.497-45.255 0l-73.372 73.372v-178.745c0-17.673-14.327-32-32-32s-32 14.327-32 32v178.745l-73.372-73.373c-12.497-12.497-32.759-12.497-45.256 0-6.248 6.249-9.372 14.439-9.372 22.628s3.124 16.379 9.372 22.627l128 128.001c12.497 12.496 32.759 12.496 45.255 0z" />
<glyph unicode="&#xe655;" d="M256 480c-141.385 0-256-114.615-256-256s114.615-256 256-256 256 114.615 256 256-114.615 256-256 256zM256 16c-114.875 0-208 93.125-208 208s93.125 208 208 208 208-93.125 208-208-93.125-208-208-208zM406.628 246.627l-128.001 128c-12.496 12.497-32.757 12.497-45.254 0s-12.497-32.758 0-45.255l73.372-73.372h-178.745c-17.673 0-32-14.327-32-32s14.327-32 32-32h178.745l-73.373-73.372c-12.497-12.497-12.497-32.759 0-45.256 6.249-6.248 14.439-9.372 22.628-9.372s16.379 3.124 22.627 9.372l128.001 128c12.496 12.497 12.496 32.759 0 45.255z" />
<glyph unicode="&#xe656;" d="M512 224c0 141.385-114.615 256-256 256s-256-114.615-256-256 114.615-256 256-256 256 114.615 256 256zM48 224c0 114.875 93.125 208 208 208s208-93.125 208-208-93.125-208-208-208-208 93.125-208 208zM278.627 73.372l128 128.001c12.497 12.496 12.497 32.757 0 45.254s-32.758 12.497-45.255 0l-73.372-73.372v178.745c0 17.673-14.327 32-32 32s-32-14.327-32-32v-178.745l-73.372 73.373c-12.497 12.497-32.759 12.497-45.256 0-6.248-6.249-9.372-14.439-9.372-22.628s3.124-16.379 9.372-22.627l128-128.001c12.497-12.496 32.759-12.496 45.255 0z" />
<glyph unicode="&#xe657;" d="M256 480c141.385 0 256-114.615 256-256s-114.615-256-256-256-256 114.615-256 256 114.615 256 256 256zM256 16c114.875 0 208 93.125 208 208s-93.125 208-208 208-208-93.125-208-208 93.125-208 208-208zM105.372 246.627l128.001 128c12.496 12.497 32.757 12.497 45.254 0s12.497-32.758 0-45.255l-73.372-73.372h178.745c17.673 0 32-14.327 32-32s-14.327-32-32-32h-178.745l73.373-73.372c12.497-12.497 12.497-32.759 0-45.256-6.249-6.248-14.439-9.372-22.628-9.372s-16.379 3.124-22.627 9.372l-128.001 128c-12.496 12.497-12.496 32.759 0 45.255z" />
<glyph unicode="&#xe658;" d="M256 480c-141.385 0-256-114.615-256-256s114.615-256 256-256 256 114.615 256 256-114.615 256-256 256zM256 32c-106.039 0-192 85.961-192 192s85.961 192 192 192c106.039 0 192-85.961 192-192s-85.961-192-192-192zM160 224c0 53.019 42.981 96 96 96s96-42.981 96-96c0-53.019-42.981-96-96-96s-96 42.981-96 96z" />
<glyph unicode="&#xe659;" d="M67.686 323.661c44.723 38.4 80.077 68.787 175.923 14.592 46.054-26.035 83.2-35.815 114.125-35.815 54.144 0 89.216 30.131 119.552 56.167 10.829 9.293 12.237 25.805 3.123 36.838s-25.241 12.467-36.070 3.175c-44.723-38.425-80.051-68.787-175.949-14.592-126.669 71.552-186.010 20.583-233.677-20.377-10.803-9.293-12.211-25.779-3.123-36.813s25.267-12.493 36.096-3.175zM444.313 267.879c-44.723-38.4-80.051-68.787-175.949-14.592-126.643 71.552-185.984 20.583-233.651-20.352-10.829-9.293-12.237-25.805-3.123-36.839s25.241-12.467 36.071-3.175c44.723 38.426 80.077 68.787 175.923 14.618 46.055-26.035 83.2-35.84 114.125-35.84 54.144 0 89.216 30.131 119.552 56.192 10.829 9.293 12.237 25.779 3.123 36.813-9.088 11.059-25.241 12.467-36.070 3.175zM444.313 137.139c-44.723-38.4-80.051-68.787-175.949-14.592-126.643 71.552-186.010 20.608-233.651-20.352-10.829-9.293-12.237-25.805-3.123-36.839s25.241-12.467 36.071-3.175c44.749 38.425 80.077 68.762 175.949 14.618 46.055-26.035 83.2-35.84 114.125-35.84 54.144 0 89.216 30.131 119.552 56.192 10.829 9.267 12.237 25.779 3.123 36.813s-25.267 12.493-36.096 3.175z" />
<glyph unicode="&#xe65a;" d="M404.505 281.549h-46.106v35.84c0 74.163-34.151 117.76-102.4 117.76-68.224 0-102.4-43.597-102.4-117.76v-35.84h-51.2c-14.131 0-25.6-16.563-25.6-30.72v-199.68c0-14.080 10.983-29.159 24.371-33.459l30.617-9.907c13.389-4.327 35.865-7.859 49.971-7.859h148.48c14.080 0 36.582 3.533 49.971 7.859l30.618 9.907c13.414 4.301 24.371 19.379 24.371 33.459v199.68c0 14.157-16.563 30.72-30.695 30.72zM204.8 327.629c0 36.992 20.429 56.32 51.2 56.32 30.797 0 51.2-19.328 51.2-56.32v-46.080h-102.4v46.080z" />
<glyph unicode="&#xe65b;" d="M404.48 281.6h-46.080v61.44c0 74.163-34.176 117.76-102.4 117.76-68.25 0-102.4-43.597-102.4-117.76v-10.24h51.2v20.48c0 36.992 20.403 56.32 51.2 56.32 30.771 0 51.2-19.328 51.2-56.32v-71.68h-204.8c-14.157 0-25.6-16.563-25.6-30.72v-199.68c0-14.080 10.983-29.133 24.371-33.459l30.617-9.907c13.415-4.301 35.891-7.834 49.971-7.834h148.48c14.106 0 36.582 3.533 49.971 7.859l30.618 9.907c13.389 4.301 24.371 19.353 24.371 33.433v199.68c0 14.157-16.563 30.72-30.72 30.72z" />
<glyph unicode="&#xe65c;" d="M292.787 370.791c-10.701-10.445-115.251-120.218-115.251-120.218-5.709-5.581-8.55-12.877-8.55-20.173s2.841-14.592 8.55-20.173c0 0 104.551-109.773 115.251-120.192 10.701-10.445 29.952-11.161 41.37 0 11.392 11.136 12.288 26.675-0.026 40.32l-95.923 100.045 95.923 100.045c12.313 13.67 11.418 29.209 0.026 40.345-11.443 11.136-30.695 10.445-41.37 0z" />
<glyph unicode="&#xe65d;" d="M396.365 267.187c-10.419-10.701-120.192-115.277-120.192-115.277-5.581-5.709-12.877-8.55-20.173-8.55-7.322 0-14.618 2.841-20.173 8.55 0 0-109.773 104.576-120.218 115.277-10.419 10.701-11.136 29.926 0 41.37 11.162 11.417 26.701 12.313 40.345 0l100.045-95.949 100.019 95.923c13.671 12.314 29.235 11.418 40.346 0 11.161-11.417 10.471-30.669 0-41.344z" />
<glyph unicode="&#xe65e;" d="M396.365 193.613c-10.419 10.701-120.192 115.251-120.192 115.251-5.581 5.709-12.877 8.576-20.173 8.576-7.322 0-14.618-2.867-20.173-8.576 0 0-109.773-104.551-120.218-115.251-10.419-10.701-11.136-29.952 0-41.37 11.162-11.392 26.701-12.313 40.345 0l100.045 95.923 100.019-95.923c13.671-12.313 29.235-11.392 40.346 0 11.161 11.443 10.471 30.695 0 41.37z" />
<glyph unicode="&#xe65f;" d="M219.213 370.791c10.701-10.445 115.251-120.218 115.251-120.218 5.735-5.581 8.576-12.877 8.576-20.173s-2.841-14.592-8.576-20.173c0 0-104.55-109.773-115.251-120.192-10.701-10.445-29.927-11.161-41.369 0-11.417 11.136-12.314 26.675 0 40.32l95.949 100.045-95.923 100.045c-12.314 13.67-11.417 29.209 0 40.345s30.669 10.445 41.344 0z" />
<glyph unicode="&#xe660;" d="M252.723 476.135c-135.731-1.817-244.275-113.305-242.458-249.011s113.305-244.275 249.037-242.458c135.706 1.792 244.275 113.305 242.457 249.037-1.817 135.706-113.357 244.25-249.037 242.432zM258.586 36.403c-107.161-1.459-195.174 84.25-196.608 191.411s84.275 195.174 191.437 196.608c107.136 1.434 195.149-84.275 196.583-191.411s-84.25-195.149-191.411-196.608zM195.865 188.749c-10.368 0-18.227 3.789-23.552 11.366-5.351 7.577-7.987 17.664-7.987 30.285 0 27.75 10.522 41.625 31.539 41.625 4.198 0 8.755-1.408 13.671-4.198 4.889-2.816 9.037-7.731 12.416-14.72l31.513 16.41c-12.595 22.707-33.511 34.074-62.669 34.074-19.917 0-36.352-6.579-49.408-19.763-13.030-13.184-19.558-31.001-19.558-53.427 0-22.989 6.451-40.96 19.354-53.863 12.877-12.902 29.875-19.353 50.893-19.353 13.159 0 25.216 3.303 36.147 9.907s19.507 15.642 25.677 27.161l-29.030 14.72c-5.607-13.466-15.283-20.224-29.005-20.224zM331.699 188.749c-10.394 0-18.253 3.789-23.552 11.366-5.351 7.552-7.987 17.664-7.987 30.285 0 27.75 10.496 41.625 31.539 41.625 4.505 0 9.19-1.408 14.106-4.198 4.889-2.816 9.063-7.731 12.39-14.72l31.104 16.41c-12.339 22.707-33.050 34.074-62.259 34.074-19.891 0-36.352-6.579-49.382-19.763-13.056-13.184-19.558-30.976-19.558-53.401 0-22.989 6.375-40.96 19.123-53.863 12.774-12.902 29.824-19.353 51.123-19.353 12.902 0 24.807 3.303 35.738 9.907 10.906 6.605 19.61 15.642 26.061 27.161l-29.44 14.72c-5.606-13.491-15.257-20.25-29.005-20.25z" />
<glyph unicode="&#xe661;" d="M256 320.384c22.835 0 34.253 11.392 34.253 34.202 0 23.117-11.418 34.663-34.253 34.663s-34.227-11.546-34.227-34.663c0-22.809 11.392-34.202 34.227-34.202zM306.483 307.174h-100.941c-4.403 0-8.115-1.536-11.213-4.608s-4.608-6.81-4.608-11.187v-100.506h28.083v-119.373h76.339v119.373h28.109v100.531c0 4.378-1.613 8.090-4.813 11.187-3.226 3.047-6.861 4.583-10.957 4.583zM256 476.16c-135.731 0-245.76-110.029-245.76-245.76s110.029-245.76 245.76-245.76 245.76 110.029 245.76 245.76-110.029 245.76-245.76 245.76zM256 29.696c-110.848 0-200.704 89.856-200.704 200.704s89.856 200.704 200.704 200.704 200.704-89.856 200.704-200.704-89.856-200.704-200.704-200.704z" />
<glyph unicode="&#xe662;" d="M126.029 128c-55.475 0-100.429 45.798-100.429 102.4s44.953 102.4 100.429 102.4c55.475 0 100.454-45.824 100.454-102.4s-44.979-102.4-100.454-102.4zM385.945 128c-55.501 0-100.505 45.798-100.505 102.4s45.005 102.4 100.505 102.4c55.45 0 100.454-45.824 100.454-102.4s-45.005-102.4-100.454-102.4z" />
<glyph unicode="&#xe663;" d="M160 288h64v-64h-64zM256 288h64v-64h-64zM352 288h64v-64h-64zM64 96h64v-64h-64zM160 96h64v-64h-64zM256 96h64v-64h-64zM160 192h64v-64h-64zM256 192h64v-64h-64zM352 192h64v-64h-64zM64 192h64v-64h-64zM416 480v-32h-64v32h-224v-32h-64v32h-64v-512h480v512h-64zM448 0h-416v352h416v-352z" />
<glyph unicode="&#xe664;" d="M262.63 230.835c0.87 0.281 1.741 0.537 2.663 0.819-2.125 4.762-4.48 9.651-7.142 14.925-48.128-14.233-94.208-14.387-102.425-14.285-0.051-0.614-0.077-1.28-0.077-1.894 0-24.192 8.704-47.463 24.525-65.715 5.299 8.525 33.229 50.227 82.458 66.151zM321.408 306.457c-18.202 15.667-41.37 24.269-65.408 24.269-7.245 0-14.541-0.793-21.734-2.381 5.222-7.066 21.299-29.363 36.378-56.909 32.819 12.595 47.667 30.797 50.765 35.021zM195.174 150.707c17.638-13.543 38.656-20.659 60.826-20.659 13.261 0 26.112 2.56 38.272 7.552-1.69 9.753-7.552 39.424-21.043 74.778-54.323-19.2-74.803-55.322-78.055-61.671zM248.448 264.576c-15.565 27.443-31.769 50.048-36.198 56.115-27.315-13.287-47.411-38.579-54.093-68.096h0.41c10.393 0 47.309 0.87 89.881 11.981zM294.759 217.651c11.904-33.050 17.408-60.57 18.944-69.351 21.811 15.36 36.711 38.938 41.19 65.075-4.454 1.331-20.505 5.683-40.755 5.683-6.579 0-13.133-0.486-19.379-1.408zM256 476.16c-135.731 0-245.76-110.029-245.76-245.76s110.029-245.76 245.76-245.76c135.757 0 245.76 110.029 245.76 245.76s-110.003 245.76-245.76 245.76zM256 110.131c-66.304 0-120.269 53.939-120.269 120.269s53.939 120.269 120.269 120.269c66.355 0 120.32-53.939 120.32-120.269s-53.965-120.269-120.32-120.269zM279.603 254.055c2.227-4.557 4.275-9.113 6.195-13.568 0.589-1.459 1.255-2.893 1.843-4.352 7.091 0.845 14.643 1.28 22.553 1.28 21.863 0 40.038-3.2 46.106-4.403-0.538 21.76-8.243 42.906-21.811 59.878-4.096-5.299-20.941-24.653-54.887-38.835z" />
<glyph unicode="&#xe665;" d="M389.12 230.4c0-73.523-59.623-133.12-133.12-133.12-73.523 0-133.12 59.597-133.12 133.12 0 8.755 0.871 17.305 2.509 25.6h-89.549v-176.947c0-37.99 30.771-68.813 68.813-68.813h302.694c37.99 0 68.813 30.797 68.813 68.813v176.947h-89.523c1.613-8.294 2.483-16.845 2.483-25.6zM407.347 450.56h-302.695c-38.016 0-68.813-30.822-68.813-68.813v-74.547h111.462c24.089 34.048 63.795 56.32 108.697 56.32s84.608-22.272 108.697-56.32h111.463v74.547c0 37.99-30.822 68.813-68.813 68.813zM441.011 365.568c0-6.784-5.529-12.288-12.288-12.288h-36.839c-6.759 0-12.288 5.529-12.288 12.288v36.864c0 6.784 5.555 12.288 12.288 12.288h36.839c6.784 0 12.288-5.529 12.288-12.288v-36.864zM337.92 230.4c0 45.261-36.685 81.92-81.92 81.92s-81.92-36.659-81.92-81.92 36.685-81.92 81.92-81.92 81.92 36.659 81.92 81.92z" />
<glyph unicode="&#xe666;" d="M282.496 205.286c-7.885 4.582-18.816 4.582-27.725 4.582h-29.209v-60.211h26.829c9.933 0 22.579-0.691 31.129 5.299 7.885 5.299 12.313 15.667 12.313 25.549 0 9.19-5.478 20.173-13.337 24.781zM271.462 256.666c6.502 4.941 9.907 13.798 9.907 21.913 0 8.832-4.096 17.305-11.597 21.888-7.885 4.583-22.246 3.533-31.488 3.533h-12.723v-52.992h16.819c9.6 0.025 20.89-0.691 29.081 5.657zM415.36 476.16h-318.745c-47.693 0-86.374-38.682-86.374-86.4v-318.695c0-47.719 38.681-86.4 86.374-86.4h318.72c47.719 0 86.4 38.682 86.4 86.4v318.695c0.026 47.718-38.656 86.4-86.375 86.4zM269.337 104.781h-100.403v242.355h109.696c31.769 0 61.107-20.224 61.107-55.91 0-27.546-15.385-46.413-34.995-52.301v-0.691c29.107-5.99 49.869-21.811 49.869-59.93 0-35.277-24.038-73.523-85.274-73.523z" />
</font></defs></svg>